{
   "File":"admForms",
	"Title":"System Forms",
	"Description":"",
	"Action":[true,true,true,false],
	"Table":"forms",
	"Fields":[
		"Code",
		"Name",
		"FileName",
		"SystemRefId",
		"UseFor",
		"Description"
	],
	"Label":[
		"Code",
		"Name",
		"File Name",
		"Systems",
		"For",
		"Description"
	],
	"InputType":[
		"Text",
		"Text",
		"Text",
		"Drop",
		"Number",
		"Text"
	],
	"Class":[
		"mandatory",
	   "mandatory",
	   "mandatory",
	   "mandatory",
	   "number--",
	   ""
	],
	"DefaultValue":[
		"",
		"",
		"",
		"LookUp|System",
		"",
		""
	],
	"css":[
	    "text-align:center",
		"",
		"",
		"text-align:center;",
		"text-align:center;",
		""
	]
}